<?xml version="1.0" encoding="utf-8"?>
<!-- Generator: Adobe Illustrator 17.1.0, SVG Export Plug-In . SVG Version: 6.00 Build 0)  -->
<!DOCTYPE svg PUBLIC "-//W3C//DTD SVG 1.1//EN" "http://www.w3.org/Graphics/SVG/1.1/DTD/svg11.dtd">
<svg version="1.1" id="Layer_1" xmlns="http://www.w3.org/2000/svg" xmlns:xlink="http://www.w3.org/1999/xlink" x="0px" y="0px"
	 viewBox="0 0 549.3 457.3" enable-background="new 0 0 549.3 457.3" xml:space="preserve">
<path d="M416.6,178.6c0.9,39.9-14.7,78.2-44.1,111c-34.9,38.8-79.7,58.1-131.1,57.5c-48-0.6-90.3-18.8-123.8-54.5
	c-33.3-35.5-49.2-78.2-47.5-126.5c1.4-37.6,14-72,38.2-101.4C141,25.1,182.7,2.9,234.4,0.3c47-2.4,88.7,11.3,123.9,42.6
	C397.2,77.7,417.4,121.3,416.6,178.6z M104.5,171C106,252,168,315,251.1,312.1c36.1-1.3,67.8-16.4,93.1-42.9
	c26.8-28,40.3-62.4,38.8-100.6c-1.6-40.8-18.6-75.8-50.9-102.4c-27.5-22.7-59.3-33.5-94.5-31.9c-39.7,1.8-73.3,18.2-99.4,48.4
	C115.9,108.7,105.2,139.4,104.5,171z"/>
<path d="M343.4,367.6c13.8,0,26.8-0.5,39.7,0.2c6.5,0.3,15.9,7,16,15.9c0.3,17.8,0.6,35.6-0.1,53.4c-0.4,10.7-8.6,16.4-17.6,17.2
	c-11.4,1-22.9,0.3-34.4,0.5c-3.9,0.1-3.6-2.6-3.6-5.1c0-18.3,0-36.6,0-54.9C343.4,385.8,343.4,376.8,343.4,367.6z M366.9,410.7
	c0,7.3,0.1,14.6-0.1,21.9c-0.1,3.4,1.5,4.6,4.5,4c5.4-1,6.2-5.7,6.4-9.7c0.5-10.4,0.1-20.9,0.1-31.4c0-3-1.5-5.4-2.5-8
	c-1.2-3.3-3.9-2.5-6.3-2.4c-2.7,0.1-2.2,2.5-2.2,4.2C366.9,396.4,366.9,403.6,366.9,410.7z"/>
<path d="M488.3,182.4c0,14.3,0,27.7,0,41.2c0,8.3-0.3,16.7,0.1,25c0.5,10.6-7.2,19.9-17.5,21.8c-4.5,0.8-8.9,3-13.4,2.1
	c-9-1.7-18.6-3.2-23.2-12.4c-2.1-4.2-4-9-4-14.1c0-19.3,0.1-38.6-0.1-58c0-4.2,1.6-5.7,5.6-5.7c4.2,0.1,8.4,0.3,12.5-0.1
	c4.4-0.4,5.8,1.1,5.7,5.6c-0.2,19.3-0.1,38.6-0.1,58c0,1.9-0.7,4.3,1,5.7c1.7,1.4,3.3,3.9,6,2.8c2.7-1.1,4.3-3.2,4.2-6.5
	c-0.1-14.3-0.1-28.6,0-43c0-5.8,0.1-11.7,0-17.5c-0.1-3.1,1-4.8,4.2-4.9C475.3,182.3,481.4,182.4,488.3,182.4z"/>
<path d="M0.1,227c0-8.3-0.2-16.7,0.1-25c0.3-9.2,8.3-16.7,16.8-19.7c9.4-3.3,17.8-1.6,26.7,0.6c5.6,1.4,13.3,11,14.3,18
	c2,13.7,1.6,14.2-12.1,14.2c-0.7,0-1.3,0-2,0c-8.7,0-8.9,0-8.9-8.6c0-4.3-2.2-7.8-5.8-7.8c-3.6-0.1-5.9,3.2-5.8,7.7
	c0.2,14.5,0.1,29,0.1,43.4c0,3.2,0.9,5.5,4.8,5.3c3.5-0.2,6.2-1.5,6.5-5.3c0.2-3.1,0.2-6.3,0.1-9.5c-0.1-3.6,1.7-5.2,5.1-5.2
	c4.7,0,9.3,0,14,0c2,0,3.9,0.5,4,2.8c0.5,9.5,1.8,19.3-5.7,27.1c-4.5,4.6-9.8,7.6-16.3,7.9c-5.2,0.2-10.3,0-15.5,0.1
	c-9.9,0.2-19.9-10.8-20.3-19.9C-0.2,244.3,0.1,235.6,0.1,227C0.1,227,0.1,227,0.1,227z"/>
<path d="M537.9,209.1c-1.7,0-3.3-0.1-5,0c-3.2,0.3-4.8-0.8-5.2-4.3c-0.3-2.9-1.6-5.9-4.6-6.9c-1.8-0.7-4.8-1.3-5.7,1.2
	c-1.1,3-1.9,6.9,1,9.3c4.1,3.3,8.4,6.5,13.1,8.8c17.2,8.4,19.5,20,16.7,35.8c-1.5,8.5-7.7,14.5-17.4,17.6c-12.4,4-22.3,0.8-31.6-6.5
	c-8-6.3-5.8-15.5-5.3-24c0.1-1.9,1.7-2.2,3.3-2.3c2.2,0,4.3,0,6.5,0c9.4,0,9.4,0,10.5,9.3c0.5,3.9,3.6,5.7,6.5,6.9
	c2.6,1.1,4.1-1.9,5.7-3.8c2-2.4,1.5-4.3,0.1-7.1c-2.5-5.3-7.7-6.8-11.9-9.8c-2.6-1.9-5.6-3.2-8.3-5c-14.4-9.7-16-27.2-6.5-41.3
	c2-3,5.8-4.1,8.9-5.9c15.2-8.8,39.5,3.7,40.1,20.6c0.3,7-0.1,7.4-7,7.5C540.6,209.1,539.2,209.1,537.9,209.1z"/>
<path d="M190.2,364.6c11.1-0.8,19.5,3.2,25.2,12.1c2.6,4,3.1,8.9,4.3,13.5c0.6,2.4-0.9,3.7-3.4,3.7c-3.5,0-7-0.2-10.5,0.1
	c-5.6,0.5-10-0.1-9.4-7.4c0.2-2.2-1.2-3.6-3.6-4c-3.1-0.6-5.3,1-6.8,3.1c-1.2,1.7-0.6,3.6,0.9,5.7c4.8,6.6,12.5,8.8,18.6,13.3
	c5.9,4.3,12,8.2,12,16.8c0,3.4,2.6,6.2,2.4,9.9c-0.9,14.4-11.1,25.1-25.5,25.9c-11.1,0.6-21.6-1.4-28.1-11.5
	c-3.7-5.8-4.2-13.4-1.4-19.1c2.4-5,9.4-1.4,14.3-2.1c2.1-0.3,4.7,0.1,5.5,2.4c0.7,2,0.3,4.3,0.5,6.4c0.2,3.7,2.5,5.7,5.7,6.1
	c3.6,0.4,5.1-2.5,5.7-5.6c1.1-5.8-2.1-10.6-8.7-13.8c-6.1-2.9-11.5-6.7-16.6-11.3c-9.1-8.1-9.4-31.5,1.7-38.9
	C178.5,366,184.1,363.9,190.2,364.6z"/>
<path d="M307.6,419.7c-0.6,1.1-0.8,1.2-0.8,1.4c-2.1,14.5-1.5,15.3,13,15.3c0.8,0,1.7,0,2.5,0c13.9,0,14.9,1.2,12.9,15.4
	c-0.3,2.5-1.7,3-3.7,3c-14.7,0-29.3,0.1-44,0c-3.3,0-4.5-1.8-4.5-5.1c0.1-25.8,0.1-51.6,0-77.5c0-3.9,1.7-4.9,5.1-4.8
	c13.8,0,27.7,0.1,41.5-0.1c2.4,0,3.4,0.8,3.5,3c0,0.3,0,0.7,0,1c-0.1,17.5,1.9,13.8-13.2,14.2c-2.3,0.1-4.7,0.3-7,0
	c-5.3-0.7-7,1.4-6.7,6.7c0.4,7.3,0.1,7.3,7.4,7.3c4.8,0,9.7,0.1,14.5,0c3-0.1,4,1.2,4.2,4.1c1.1,16.2,1.1,16.2-15.2,16.2
	C314,419.7,310.6,419.7,307.6,419.7z"/>
<path d="M239.7,420.2c0-9.8-0.1-19.7,0.1-29.5c0.1-3.7-0.8-5.3-4.9-5.4c-13-0.2-12.9-0.3-12.6-13.2c0.1-3.7,1.5-4.9,5-4.9
	c15.5,0.1,31,0.1,46.5,0c3,0,4.4,0.8,4.2,3.9c0,0.5,0,1,0,1.5c0.1,12,0.1,12.1-11.9,12.8c-4.6,0.2-4.9,2.9-4.9,6.4
	c0,18.5,0,37,0,55.5c0,7.6,0,7.6-7.4,7.6c-14,0-14,0-14-14.1C239.7,433.8,239.7,427,239.7,420.2z"/>
<path d="M104.2,401.2c0,9.6,0.1,19.3,0,28.9c-0.1,4.4,1.5,6.5,6.1,6.2c4.5-0.3,9,0.1,13.5-0.1c5-0.2,4.6,3.2,4.5,6.3
	c-0.7,12.4,4.1,11.5-4.1,12c-12.9,0.8-25.9,0.2-38.9,0.2c-3.2,0-4.3-1.4-4.3-4.5c0.1-26.1,0.1-52.2,0-78.4c0-3.1,0.8-4.8,4.1-4.8
	c5.1,0,10.3-0.2,15.4,0c3.2,0.1,3.9,2.3,3.8,5.2C104.1,381.9,104.2,391.5,104.2,401.2z"/>
<path d="M136.2,367.2c5.7,0,11.2,0.2,16.6-0.1c3-0.1,4.4,0.7,4.4,3.7c0,26.5,0,53,0,79.5c0,2.7-1,4.4-4.1,4.4c-4.7-0.1-9.3,0-14,0
	c-2.1,0-3.5-0.6-3.5-3.1c0.1-28,0.2-55.9,0.3-83.9C135.9,367.6,136.1,367.5,136.2,367.2z"/>
<path d="M192,83.7c-0.2,1.8-0.5,3.6-0.5,5.4c0,30-0.1,60,0,89.9c0,5.5,0.9,10.9,7.1,13.7c4.4,2,11.7-1.5,12.2-6.3
	c0.3-2.1,0.2-4.3,0.2-6.5c0-30.6,0.1-61.3-0.1-91.9c0-4.8,1.5-6.5,6.2-6.4c8,0.2,16,0.2,24,0c3.6-0.1,4.9,1.3,4.9,5
	c-0.1,33.1,0.6,66.3-0.4,99.4c-0.4,13-6.5,24.4-20.6,29.5c-7.8,2.8-16,5.4-23.6,4.6c-12.4-1.3-25.9-2.2-34.7-13.6
	c-4.1-5.4-7.7-11.4-7.7-18.4c-0.2-34-0.1-68-0.2-101.9c0-3,0.6-4.6,4.1-4.6c8.3,0.2,16.7,0.1,25,0C189.7,81.6,191.2,81.9,192,83.7
	L192,83.7z"/>
<path d="M329.4,263.7c-24.4,0-48.1,0-71.8,0c-1.3-1.8-0.8-3.7-0.8-5.5c0-40.5,0.1-81-0.1-121.4c0-4.9,1.1-6.9,6.3-6.6
	c6.6,0.4,13.3,0.4,20,0c5-0.3,6.6,1.3,6.5,6.4c-0.2,30.3-0.1,60.6-0.1,91c0,7,0.3,7.3,7.3,7.3c8.8,0,17.7,0.1,26.5,0
	c4.4-0.1,6.4,1.6,6.2,6.2C329.3,248.4,329.4,255.7,329.4,263.7z"/>
<path d="M202,264c-12.8,0-20.1-7-20.2-19.1c-0.1-10.2,8.2-19.8,20.4-19.6c12.4,0.2,20.6,9.3,20.7,19.6
	C222.9,256.6,214.8,264,202,264z M202.3,229.6c-8.8,0-17.7,7.6-16.8,15.3c0.8,7.4,6.8,16.1,16.6,15.7c10.4-0.4,15.4-6.5,16.1-15.4
	C218.9,236.6,211.3,229.6,202.3,229.6z"/>
<path d="M192,83.7C192,83.7,192,83.7,192,83.7C192,83.7,192,83.7,192,83.7z"/>
<path d="M210.5,254c-3.7,2.5-5.6,2.1-5.6-2.3c0-3-0.5-5.3-4.3-4.4c-1.1,1.9-0.7,3.8-0.8,5.5c-0.2,1.7-0.8,2.9-2.7,2.8
	c-1.6-0.1-3-0.7-3.1-2.6c0-5.3,0-10.6,0.1-15.9c0-0.6,0.4-1.5,0.8-1.7c3.8-1.9,7.9-1.6,11.6-0.5c3,0.9,2.5,4.3,2.2,6.8
	C208.3,245.9,207.6,250,210.5,254z M202.1,238.1c-2.1,0-2.2,1.4-2.2,3c0,1.6,0.8,2.4,2.5,2.2c1.9-0.2,2.3-1.4,2.3-3.1
	C204.8,238.4,203.6,238.1,202.1,238.1z"/>
</svg>
